commit 5077f900006f49a4dfddf4341cbc5cfa72c3786a (HEAD -> main, origin/main, origin/HEAD)
Author: amine otmane <amine.otmane@edu.univ-fcomte.fr>
Date:   Fri Jan 6 08:57:47 2023 +0000

    Initial commit

